{
    "name": "Pomf.se",
    "url": "http://pomf.se/",
    "version": "0.1",
    "description": "Pomf.se can host files under 50MiB.\nIt allows any filetype and run under Sweden's law. It does not store any logs of uploads/downlods. Visit their website to donate for the hosting bills."
}
